#Middlecastes

estate_middlecastes_organization_caste = {
	icon = privilege_promote_maratha_nobility
	max_absolutism = 0
	loyalty = 0.05
	land_share = 5
	influence = 0.1
	can_select = {
		always = no
	}
	can_revoke = {
		always = no
	}
	on_granted = {
		custom_tooltip = caste_races_middlecastes_tt
	}
	on_revoked = {
		custom_tooltip = caste_races_middlecastes_tt
	}
	penalties = {
	}
	benefits = {
	}

	conditional_modifier = {
		trigger = {
			has_country_flag = human_in_middlecastes #Are humans alone in caste?
			NOT = {
				has_country_flag = harimari_in_middlecastes
				# add any races here
			}
		}
		modifier = {
			global_trade_power = 0.10 #Full modifier, humans are alone in the caste
		}
	}
	conditional_modifier = {
		trigger = {
			has_country_flag = harimari_in_middlecastes #Are harimari alone in caste?
			NOT = {
				has_country_flag = human_in_middlecastes
				# add any races here
			}
		}
		modifier = {
			trade_efficiency = 0.10 #Full modifier, harimari are alone in the caste
		}
	}
	conditional_modifier = {
		trigger = {
			has_country_flag = human_in_middlecastes #Do humans share the caste?
			has_country_flag = harimari_in_middlecastes
		}
		modifier = {
			global_trade_power = 0.05 #Half modifier, humans share the caste
			trade_efficiency = 0.05 #Half modifier, harimari share in the caste
		}
	}

	ai_will_do = {
		factor = 0
	}
}

estate_middlecastes_land_rights = {
	icon = privilege_grant_autonomy
	land_share = 5
	max_absolutism = -5
	loyalty = 0.05
	influence = 0.05
	can_select = {
	}
	on_granted = {
	}
	penalties = {
	}
	benefits = {
		governing_capacity = 100
	}
	ai_will_do = {
		factor = 5
		modifier = {
			factor = 1.4
			num_of_territories = 5
		}
		modifier = {
			factor = 1.5
			num_of_territories = 10
		}
		modifier = {
			factor = 1.5
			num_of_territories = 15
		}
		modifier = {
			factor = 0
			OR = {
				NOT = { crown_land_share = 25 }
				estate_influence = {
					estate = estate_middlecastes
					influence = 75
				}
			}
			NOT = { has_estate_privilege = estate_middlecastes_land_rights }
		}
		modifier = {
			factor = 0
			NOT = { num_of_territories = 1 }
		}
		modifier = {
			factor = 0.8
			OR = {
				NOT = { crown_land_share = 40 }
				AND = {
					is_absolutism_active = yes
					NOT = { crown_land_share = 60 }
				}
			}
			NOT = { has_estate_privilege = estate_middlecastes_land_rights }
		}
		modifier = {
			factor = 0.8
			OR = {
				NOT = { crown_land_share = 30 }
				AND = {
					is_absolutism_active = yes
					NOT = { crown_land_share = 50 }
				}
			}
			NOT = { has_estate_privilege = estate_middlecastes_land_rights }
		}
		modifier = {
			factor = 0.8
			is_absolutism_active = yes
		}
	}
}

estate_middlecastes_enforced_interfaith_dialogue = {
	icon = privilege_promoto_dhimmi_nobles
	max_absolutism = -5
	loyalty = 0.05
	is_valid = {
		any_owned_province = {
			NOT = { religion = root }
		}
		OR = {
			has_estate_privilege = estate_middlecastes_enforced_interfaith_dialogue
			NOT = { has_estate = estate_dhimmi }
		}
	}
	can_select = {
		NOT = { has_estate_privilege = estate_church_enforced_one_faith }
	}
	penalties = {
		church_loyalty_modifier = -0.1
	}
	benefits = {
		tolerance_heathen = 2
		tolerance_heretic = 2
	}
	ai_will_do = {
		factor = 0
	}
}

estate_middlecastes_land_of_commerce = {
	icon = privilege_diplo_power
	land_share = 10
	max_absolutism = -5
	loyalty = -0.05
	can_select = {
	}
	on_granted = {
	}
	penalties = {
	}
	benefits = {
		country_diplomatic_power = 1
	}
	ai_will_do = {
		factor = 10
		modifier = {
			factor = 0
			OR = {
				NOT = { crown_land_share = 30 }
				estate_influence = {
					estate = estate_middlecastes
					influence = 75
				}
			}
			NOT = { has_estate_privilege = estate_middlecastes_land_of_commerce }
		}
		modifier = {
			factor = 0.8
			OR = {
				NOT = { crown_land_share = 35 }
				AND = {
					is_absolutism_active = yes
					NOT = { crown_land_share = 55 }
				}
			}
			NOT = { has_estate_privilege = estate_middlecastes_land_of_commerce }
		}
		modifier = {
			factor = 0.8
			is_absolutism_active = yes
		}
		modifier = {
			factor = 1.25
			NOT = { dip = 2 }
		}
		modifier = {
			factor = 0.8
			dip = 5
		}
	}
}

estate_middlecastes_admirals = {
	icon = privilege_admiral
	max_absolutism = -5
	influence = 0.05
	can_select = {
		navy_tradition = 30
	}
	on_granted = {
		add_navy_tradition = -15
	}
	penalties = {
	}
	benefits = {
		admiral_cost = -0.25
		navy_tradition_decay = -0.005
	}
	ai_will_do = {
		factor = 0
	}
}

estate_middlecastes_commercial_board_of_advice = {
	icon = privilege_recruit_minister
	max_absolutism = -5
	influence = 0.1
	loyalty = 0.05
	penalties = {
		stability_cost_modifier = 0.1
	}
	benefits = {
		dip_advisor_cost = -0.25
	}
	ai_will_do = {
		factor = 10
		modifier = {
			factor = 0.5
			is_absolutism_active = yes
		}
		modifier = {
			factor = 1.25
			NOT = { dip = 2 }
		}
		modifier = {
			factor = 0.8
			dip = 5
		}
	}
}

estate_middlecastes_new_world_charter = {
	icon = privilege_grant_new_world_charter
	max_absolutism = -5
	loyalty = 0.05
	influence = 0.05
	is_valid = {
		OR = {
			num_of_colonists = 1
			num_of_colonies = 1
		}
	}
	penalties = {
		global_tariffs = -0.10
	}
	benefits = {
		global_colonial_growth = 10
		colonist_placement_chance = 0.05
	}
	ai_will_do = {
		factor = 1
		modifier = {
			factor = 10
			OR = {
				tag = A01 #Lorent
				tag = A02 #Deranne
				tag = A21 #Venail
				tag = A33 #Verne
				tag = A11 #Pearlsedge
				tag = A47 #Eborthil
				tag = A29 #Busilar
			}
		}
		modifier = {
			factor = 0
			is_absolutism_active = yes
		}
	}
}

estate_middlecastes_indebted_to_middlecastes = {
	can_select = {
		NOT = { has_disaster = hoardcurse }
	}
	icon = privilege_give_money
	max_absolutism = -5
	loyalty = 0.05
	influence = 0.05
	on_granted = {
		custom_tooltip = estate_middlecastes_indebted_to_middlecastes_effect_tooltip
		add_mercantilism = -1
		tooltip = {
			add_inflation = 0.5
		}
		hidden_effect = {
			add_loan = {
				fixed_interest = 1
				duration = 60
				estate_loan = yes
			}
			add_loan = {
				fixed_interest = 1
				duration = 60
				estate_loan = yes
			}
			add_loan = {
				fixed_interest = 1
				duration = 60
				estate_loan = yes
			}
			add_loan = {
				fixed_interest = 1
				duration = 60
				estate_loan = yes
			}
			add_loan = {
				fixed_interest = 1
				duration = 60
				estate_loan = yes
			}
		}
	}
	penalties = {
		trade_efficiency = -0.05
	}
	benefits = {
	}
	ai_will_do = {
		factor = 0
	}
}

estate_middlecastes_free_enterprise = {
	icon = privilege_comission_merchant_ships_for_war
	max_absolutism = -10
	loyalty = 0.1
	influence = 0.1
	penalties = {
	}
	benefits = {
	}
	ai_will_do = {
		factor = 10
		modifier = {
			factor = 0
			is_absolutism_active = yes
		}
	}
}

estate_burghers_patronage_of_the_arts = {
	icon = privilege_build_jain_temple
	max_absolutism = -5
	loyalty = 0.05
	influence = 0.05
	penalties = {
		global_tax_modifier = -0.05
	}
	benefits = {
		prestige = 0.5
	}
	on_granted = {
		if = {
			limit = { prestige = 50 }
			add_prestige = 10
		}
		else_if = {
			limit = { prestige = 0 }
			add_prestige = 15
		}
		else_if = {
			limit = { prestige = -25 }
			add_prestige = 20
		}
		else_if = {
			limit = { prestige = -50 }
			add_prestige = 25
		}
		else = {
			add_prestige = 30
		}
	}
	ai_will_do = {
		factor = 0
	}
}

estate_middlecastes_monopoly_of_textiles = {
	icon = privilege_monopoly_of_goods_cloth
	max_absolutism = -10
	loyalty = 0.1
	is_valid = {
		has_dlc = "Emperor"
		any_owned_province = {
			OR = {
				trade_goods = cloth
				trade_goods = silk
			}
		}
	}
	can_select = {
		custom_trigger_tooltip = {
			tooltip = unavailable_during_revolution_disaster
			NOT = { has_disaster = revolution }
			NOT = {
				has_disaster_progress = {
					disaster = revolution
					value = 1
				}
			}
			# NOT = { has_disaster = french_revolution }
			# NOT = {
				# has_disaster_progress = {
					# disaster = french_revolution
					# value = 1
				# }
			# }
		}
	}
	on_granted = {
		add_mercantilism = 1
		add_years_of_owned_provinces_production_income = {
			years = 8
			trigger = {
				OR = {
					trade_goods = cloth
					trade_goods = silk
				}
			}
			custom_tooltip = MONOPOLY_INCOME_CLOTH_DESC
		}
		custom_tooltip = estate_middlecastes_monopoly_of_textiles_effect_tooltip
		hidden_effect = {
			every_owned_province = {
				limit = {
					OR = {
						trade_goods = cloth
						trade_goods = silk
					}
				}
				add_province_modifier = {
					name = estate_middlecastes_monopoly_of_textiles_mod
					duration = -1
				}
			}
		}
	}
	on_revoked = {
		custom_tooltip = estate_middlecastes_monopoly_of_textiles_revoke_tooltip
		hidden_effect = {
			every_owned_province = {
				limit = {
					has_province_modifier = estate_middlecastes_monopoly_of_textiles_mod
				}
				remove_province_modifier = estate_middlecastes_monopoly_of_textiles_mod
			}
		}
	}
	on_invalid = {
		custom_tooltip = estate_middlecastes_monopoly_of_textiles_revoke_tooltip
		hidden_effect = {
			every_owned_province = {
				limit = {
					has_province_modifier = estate_middlecastes_monopoly_of_textiles_mod
				}
				remove_province_modifier = estate_middlecastes_monopoly_of_textiles_mod
			}
		}
	}
	penalties = {
	}
	benefits = {
	}
	cooldown_years = 10
	on_cooldown_expires = {
		country_event = { id = monopoly_privileges.1 }
	}
	ai_will_do = { #having the AI use these could lead to an unstoppable downwards spiral if it can't work out how to get rid of them
		factor = 0
	}
}

estate_middlecastes_monopoly_of_dyes = {
	icon = privilege_monopoly_of_goods_dyes
	max_absolutism = -10
	loyalty = 0.1
	is_valid = {
		has_dlc = "Emperor"
		any_owned_province = {
			trade_goods = dyes
		}
	}
	can_select = {
		custom_trigger_tooltip = {
			tooltip = unavailable_during_revolution_disaster
			NOT = { has_disaster = revolution }
			NOT = {
				has_disaster_progress = {
					disaster = revolution
					value = 1
				}
			}
			# NOT = { has_disaster = french_revolution }
			# NOT = {
				# has_disaster_progress = {
					# disaster = french_revolution
					# value = 1
				# }
			# }
		}
	}
	on_granted = {
		add_mercantilism = 1
		add_years_of_owned_provinces_production_income = {
			years = 8
			trigger = {
				trade_goods = dyes
			}
			custom_tooltip = MONOPOLY_INCOME_DYE_DESC
		}
		custom_tooltip = estate_middlecastes_monopoly_of_dyes_effect_tooltip
		hidden_effect = {
			every_owned_province = {
				limit = {
					trade_goods = dyes
				}
				add_province_modifier = {
					name = estate_middlecastes_monopoly_of_dyes_mod
					duration = -1
				}
			}
		}
	}
	on_revoked = {
		custom_tooltip = estate_middlecastes_monopoly_of_dyes_revoke_tooltip
		hidden_effect = {
			every_owned_province = {
				limit = {
					has_province_modifier = estate_middlecastes_monopoly_of_dyes_mod
				}
				remove_province_modifier = estate_middlecastes_monopoly_of_dyes_mod
			}
		}
	}
	on_invalid = {
		custom_tooltip = estate_middlecastes_monopoly_of_dyes_revoke_tooltip
		hidden_effect = {
			every_owned_province = {
				limit = {
					has_province_modifier = estate_middlecastes_monopoly_of_dyes_mod
				}
				remove_province_modifier = estate_middlecastes_monopoly_of_dyes_mod
			}
		}
	}
	penalties = {
	}
	benefits = {
	}

	cooldown_years = 10
	on_cooldown_expires = {
		country_event = { id = monopoly_privileges.2 }
	}
	ai_will_do = {
		factor = 0
	}
}

estate_middlecastes_monopoly_of_glass = {
	icon = privilege_monopoly_of_goods_glass
	max_absolutism = -10
	loyalty = 0.1
	is_valid = {
		has_dlc = "Emperor"
		any_owned_province = {
			trade_goods = glass
		}
	}
	can_select = {
		custom_trigger_tooltip = {
			tooltip = unavailable_during_revolution_disaster
			NOT = { has_disaster = revolution }
			NOT = {
				has_disaster_progress = {
					disaster = revolution
					value = 1
				}
			}
			# NOT = { has_disaster = french_revolution }
			# NOT = {
				# has_disaster_progress = {
					# disaster = french_revolution
					# value = 1
				# }
			# }
		}
	}
	on_granted = {
		add_mercantilism = 1
		add_years_of_owned_provinces_production_income = {
			years = 8
			trigger = {
				trade_goods = glass
			}
			custom_tooltip = MONOPOLY_INCOME_GLASS_DESC
		}
		custom_tooltip = estate_middlecastes_monopoly_of_glass_effect_tooltip
		hidden_effect = {
			every_owned_province = {
				limit = {
					trade_goods = glass
				}
				add_province_modifier = {
					name = estate_middlecastes_monopoly_of_glass_mod
					duration = -1
				}
			}
		}
	}
	on_revoked = {
		custom_tooltip = estate_middlecastes_monopoly_of_glass_revoke_tooltip
		hidden_effect = {
			every_owned_province = {
				limit = {
					has_province_modifier = estate_middlecastes_monopoly_of_glass_mod
				}
				remove_province_modifier = estate_middlecastes_monopoly_of_glass_mod
			}
		}
	}
	on_invalid = {
		custom_tooltip = estate_middlecastes_monopoly_of_glass_revoke_tooltip
		hidden_effect = {
			every_owned_province = {
				limit = {
					has_province_modifier = estate_middlecastes_monopoly_of_glass_mod
				}
				remove_province_modifier = estate_middlecastes_monopoly_of_glass_mod
			}
		}
	}
	penalties = {
	}
	benefits = {
	}

	cooldown_years = 10
	on_cooldown_expires = {
		country_event = { id = monopoly_privileges.3 }
	}
	ai_will_do = {
		factor = 0
	}
}

estate_middlecastes_monopoly_of_paper = {
	icon = privilege_monopoly_of_goods_paper
	max_absolutism = -10
	loyalty = 0.1
	is_valid = {
		has_dlc = "Emperor"
		any_owned_province = {
			trade_goods = paper
		}
	}
	can_select = {
		custom_trigger_tooltip = {
			tooltip = unavailable_during_revolution_disaster
			NOT = { has_disaster = revolution }
			NOT = {
				has_disaster_progress = {
					disaster = revolution
					value = 1
				}
			}
			# NOT = { has_disaster = french_revolution }
			# NOT = {
				# has_disaster_progress = {
					# disaster = french_revolution
					# value = 1
				# }
			# }
		}
	}
	on_granted = {
		add_mercantilism = 1
		add_years_of_owned_provinces_production_income = {
			years = 8
			trigger = {
				trade_goods = paper
			}
			custom_tooltip = MONOPOLY_INCOME_PAPER_DESC
		}
		custom_tooltip = estate_middlecastes_monopoly_of_paper_effect_tooltip
		hidden_effect = {
			every_owned_province = {
				limit = {
					trade_goods = paper
				}
				add_province_modifier = {
					name = estate_middlecastes_monopoly_of_paper_mod
					duration = -1
				}
			}
		}
	}
	on_revoked = {
		custom_tooltip = estate_middlecastes_monopoly_of_paper_revoke_tooltip
		hidden_effect = {
			every_owned_province = {
				limit = {
					has_province_modifier = estate_middlecastes_monopoly_of_paper_mod
				}
				remove_province_modifier = estate_middlecastes_monopoly_of_paper_mod
			}
		}
	}
	on_invalid = {
		custom_tooltip = estate_middlecastes_monopoly_of_paper_revoke_tooltip
		hidden_effect = {
			every_owned_province = {
				limit = {
					has_province_modifier = estate_middlecastes_monopoly_of_paper_mod
				}
				remove_province_modifier = estate_middlecastes_monopoly_of_paper_mod
			}
		}
	}
	penalties = {
	}
	benefits = {
	}

	cooldown_years = 10
	on_cooldown_expires = {
		country_event = { id = monopoly_privileges.4 }
	}
	ai_will_do = {
		factor = 0
	}
}

estate_middlecastes_control_over_monetary_policy = {
	icon = privilege_give_money
	max_absolutism = -10
	influence = 0.05
	loyalty = 0.05
	is_valid = {
		has_dlc = "Emperor"
	}
	penalties = {
		all_power_cost = 0.05
	}
	benefits = {
		inflation_reduction = 0.15
		interest = -0.5
		production_efficiency = 0.05
	}
	ai_will_do = {
		factor = 1
		modifier = {
			factor = 10
			OR = {
				inflation = 15
				num_of_loans = 15
			}
		}
		modifier = {
			factor = 0
			is_absolutism_active = yes
		}
	}
}

estate_middlecastes_private_trade_fleets = {
	icon = privilege_comission_merchant_ships_for_war
	max_absolutism = -5
	influence = 0.1
	loyalty = 0.05
	is_valid = {
		has_dlc = "Emperor"
		any_owned_province = {
			has_port = yes
		}
		navy_size = 1
	}
	penalties = {
	}
	benefits = {
		light_ship_cost = -0.2
		global_ship_trade_power = 0.1
	}
	ai_will_do = {
		factor = 1
		modifier = {
			factor = 10
			num_of_light_ship = 15
			trade_income_percentage = 0.35
		}
		modifier = {
			factor = 0
			is_absolutism_active = yes
		}
	}
}

estate_middlecastes_statutory_rights = {
	icon = privilege_grant_autonomy
	max_absolutism = -5
	influence = 0.1
	is_valid = {
		has_estate_privilege = estate_middlecastes_statutory_rights
	}
	on_granted = {
		change_estate_land_share = {
			estate = all
			share = -30
		}
	}
	penalties = {
		min_autonomy = 25
	}
	benefits = {
	}
	ai_will_do = {
		factor = 0
	}
	cooldown_years = 20
}
