#12 - Sjaelland | 

owner = A13
controller = A13
add_core = A13
add_core = A71
culture = bluefoot_halfling
religion = regent_court

hre = no

base_tax = 3
base_production = 2
base_manpower = 2

trade_goods = grain

capital = ""

is_city = yes
fort_15th = yes








