#440 - Qaraqalpak

owner = A59
controller = A59
add_core = A59
culture = corvurian
religion = regent_court

hre = no

base_tax = 3
base_production = 2
base_manpower = 2

trade_goods = grain

capital = ""

is_city = yes







