#514 -

owner = U11
controller = U11
add_core = U11
add_core = U16
culture = ourdi
religion = regent_court


base_tax = 3
base_production = 3
base_manpower = 3

trade_goods = grain

capital = ""

is_city = yes











add_nationalism = 10