G32_internal = {
	slot = 1
	generic = no
	ai = yes
	potential = {
		tag = G32 #Malacnar
	}
	has_country_shield = yes
	
	G32_rally_greatest = {
		icon = mission_portuguese_ceylon
		required_missions = { }
		
		trigger = {
			estate_loyalty = { estate = estate_church loyalty = 40 }
		    estate_influence = { estate = estate_church influence = 40 }
			estate_loyalty = { estate = estate_nobles loyalty = 40 }
		    estate_influence = { estate = estate_nobles influence = 40 }
			estate_loyalty = { estate = estate_burghers loyalty = 40 }
		    estate_influence = { estate = estate_burghers influence = 40 }
		}
		
		effect = {
			add_country_modifier = {
				name = malacnar_build_three
				duration = 7300
			}
	    }
	}
	
	G32_deep_breath = {
		icon = austria_prospers
		required_missions = { G32_rally_greatest }
		
		provinces_to_highlight = {
			NOT = { owned_by_companion = yes }
			province_id = 1182
			has_discovered = ROOT
		}
		
		trigger = {
			1182 = { owned_by_companion = yes }
			is_institution_enabled = renaissance
			NOT = { is_at_war = yes }
			NOT = {
				has_ruler_modifier = g32_cowardly_battleking
				has_ruler_modifier = g32_untested_battleking
			}
			stability = 1
		}
		
		effect = {
			add_stability_or_adm_power = yes
			if = {
				limit = {
					NOT = { owns = 1182 }
				}
				1182 = {
					owner = {
						add_country_modifier = {
							name = malacnar_moment_peace
							duration = 5475
						}
					}
				}
			}
			custom_tooltip = malacnar_peace
			add_country_modifier = {
				name = malacnar_moment_peace
				duration = 5475
			}
			add_country_modifier = {
				name = g32_battleking_grace_period
				hidden = yes
				duration = 5475
			}		
			hidden_effect = {
				set_ai_personality = {
					personality = ai_diplomat
					locked = no
				}
			}
	    }
	}
	
	G32_rebirth_sword = {
		icon = mission_embrace_our_destiny
		required_missions = { G32_deep_breath }
		
		provinces_to_highlight = {
			owned_by = ROOT
			OR = {
				NOT = { base_manpower = 5 }
				NOT = { has_manpower_building_trigger = yes }
			}
			has_discovered = ROOT
		}
		
		trigger = {
			calc_true_if = {
				all_state_province = {
					base_manpower = 5
					has_manpower_building_trigger = yes
				}
				amount = 3
			}
		}
		
		effect = {
			add_country_modifier = {
				name = malacnar_haven_warriors
				duration = 7300
			}
	    }
	}
	
	G32_life_spear = {
		icon = protect_against_austria
		required_missions = { G32_rebirth_sword }
		
		provinces_to_highlight = {
			owned_by = ROOT
			OR = {
				NOT = { base_manpower = 5 }
				NOT = { has_forcelimit_building_trigger = yes }
			}
			has_discovered = ROOT
		}
		
		trigger = {
			calc_true_if = {
				all_state_province = {
					has_forcelimit_building_trigger = yes
				}
				amount = 4
			}
		}
		
		effect = {
			add_country_modifier = {
				name = malacnar_glory_workers
				duration = 7300
			}
	    }
	}
	
	G32_death_iron = {
		icon = mission_smith
		required_missions = { G32_life_spear G32_values }
		
		provinces_to_highlight = {
			province_id = 1169
			OR = {
				NOT = { base_production = 8 }
				NOT = { owned_by = ROOT }
				NOT = { has_production_building_trigger = yes }
			}
			has_discovered = ROOT
		}
		
		trigger = {
			owns_core_province = 1169
			1169 = {
				base_production = 8
				has_production_building_trigger = yes
			}
			treasury = 250
		}
		
		effect = {
			1169 = {
				add_base_production = 2
				add_building_construction = {
					building = weapons
					speed = 1 # 100% of original speed
					cost = 0.5 # 50% of original cost
				}
			}
	    }
	}
	
	G32_wealth_upper_ynn = {
		icon = take_the_bishoprics
		required_missions = { G32_death_iron G32_discipline }
		
		provinces_to_highlight = {
			OR = {
				NOT = { has_trade_building_trigger = yes }
				NOT = { country_or_non_sovereign_subject_holds = ROOT }
			}
			OR = {
				province_id = 1191
				province_id = 1186
				province_id = 1165
				province_id = 1171
			}
			has_discovered = ROOT
		}
		
		trigger = {
			1191 = {
				country_or_non_sovereign_subject_holds = ROOT
				has_trade_building_trigger = yes
			}
			1186 = {
				country_or_non_sovereign_subject_holds = ROOT
				has_trade_building_trigger = yes
			}
			1165 = {
				country_or_non_sovereign_subject_holds = ROOT
				has_trade_building_trigger = yes
			}
			1171 = {
				country_or_non_sovereign_subject_holds = ROOT
				has_trade_building_trigger = yes
			}
		}
		
		effect = {
			if = {
				limit = {
					1191 = {
						province_has_center_of_trade_of_level = 1
					}
					NOT = {
						1191 = {
							province_has_center_of_trade_of_level = 2
						}
					}
				}
				1191 = {
					add_center_of_trade_level = 1
				}
			}
			else = {
				add_treasury = 200
			}
			if = {
				limit = {
					1171 = {
						province_has_center_of_trade_of_level = 1
					}
					NOT = {
						1171 = {
							province_has_center_of_trade_of_level = 2
						}
					}
				}
				1171 = {
					add_center_of_trade_level = 1
				}
			}
			else = {
				add_treasury = 200
			}
			1186 = {
				add_base_tax = 1
				add_base_production = 1
				add_base_manpower = 1
			}
			1165 = {
				add_base_tax = 1
				add_base_production = 1
				add_base_manpower = 1
			}
	    }
	}
	
	G32_malacnari_identity = {
		icon = end_the_habsburgs
		required_missions = { G32_wealth_upper_ynn }
		
		provinces_to_highlight = {
			province_id = 1169
			OR = {
				NOT = { owned_by = ROOT }
				NOT = { is_core = ROOT }
				NOT = { development = 30 }
			}
			has_discovered = ROOT
		}
		
		trigger = {
			OR = {
				has_reform = malacnar_republic_reform
				has_reform = malacnar_monarchy_reformed
			}
			owns_core_province = 1169
			1169 = { development = 30 }
			adm_power = 100
			dip_power = 150
		}
		
		effect = {
			add_adm_power = -100
			add_dip_power = -150
			change_primary_culture = malacnari
			set_ruler_culture = malacnari
			if = {
				limit = { has_heir = yes }
				set_heir_culture = malacnari
			}
			1169 = { change_culture = malacnari }
			if = {
				limit = { owns_core_province = 1168 }
				1168 = { change_culture = malacnari }
			}
			if = {
				limit = { owns_core_province = 2808 }
				2808 = { change_culture = malacnari }
			}
			if = {
				limit = { owns_core_province = 2812 }
				2812 = { add_culture_construction = { speed = 1 cost = 0 } }
			}
			if = {
				limit = { owns_core_province = 1186 }
				1186 = { add_culture_construction = { speed = 1 cost = 0 } }
			}
			if = {
				limit = { owns_core_province = 1170 }
				1170 = { add_culture_construction = { speed = 1 cost = 0 } }
			}
			add_country_modifier = {
				name = malacnar_warrior_culture
				duration = 10950
			}
	    }
	}
	
	G32_southern_control = {
		icon = mission_guilds_of_barcelona
		required_missions = { G32_malacnari_identity G32_obedience }
		
		provinces_to_highlight = {
			OR = {
				NOT = { has_trade_building_trigger = yes }
				NOT = { owned_by = ROOT }
				NOT = { is_core = ROOT }
				AND = {
					province_id = 1139
					OR = {
						NOT = { has_forcelimit_building_trigger = yes }
						NOT = { has_manpower_building_trigger = yes }
						NOT = { province_has_center_of_trade_of_level = 2 }
						NOT = { culture = malacnari }
					}
				}
			}
			OR = {
				province_id = 1138
				province_id = 1133
				province_id = 1139
			}
			has_discovered = ROOT
		}
		
		trigger = {
			owns_core_province = 1138
			1138 = { has_trade_building_trigger = yes }
			owns_core_province = 1133
			1133 = { has_trade_building_trigger = yes }
			owns_core_province = 1139
			1139 = {
				has_trade_building_trigger = yes
				province_has_center_of_trade_of_level = 2
				has_forcelimit_building_trigger = yes
				has_manpower_building_trigger = yes
				culture = malacnari
			}
		}
		
		effect = {
			1139 = {
				add_base_tax = 1
				add_base_production = 1
				add_base_manpower = 1
				add_center_of_trade_level = 1
				add_province_modifier = {
					name = malacnar_southern
					duration = -1
				}
			}
	    }
	}
	
	G32_lifeblood_unshed = {
		icon = mission_tree_fishing
		required_missions = { G32_southern_control }
		
		provinces_to_highlight = {
			province_group = ynn_riverside
			NOT = {
				AND = {
					owned_by = ROOT
					is_core = ROOT
					development = 10
					culture_group = ynnic_ruinborn_elf
				}
			}
			has_discovered = ROOT
		}
		
		trigger = {
			ynn_riverside = {
				type = all
				owned_by = ROOT
				is_core = ROOT
				development = 10
				culture_group = ynnic_ruinborn_elf
			}
			calc_true_if = {
				all_owned_province = {
					province_group = ynn_riverside
					culture = malacnari
				}
				amount = 8
			}
		}
		
		effect = {
			1168 = {
				add_province_modifier = {
					name = malacnar_ynn
					duration = -1
				}
			}
			custom_tooltip = malacnar_ynn_path
			hidden_effect = {
				every_owned_province = {
					limit = {
						province_group = ynn_riverside
						NOT = { province_id = 1168 }
					}
					add_province_modifier = {
						name = malacnar_ynn
						duration = -1
					}
				}
			}
	    }
	}
	
	G32_school_of_war = {
		icon = the_great_school
		required_missions = { G32_lifeblood_unshed G32_courage }
		
		provinces_to_highlight = {
			OR = {
				AND = {
					owned_by = ROOT
					OR = {
						NOT = { has_building = university }
						NOT = { culture = malacnari }
					}
				}
				AND = {
					province_id = 1169
					OR = {
						NOT = { owned_by = ROOT }
						NOT = { is_core = ROOT }
						NOT = { development = 40 }
						NOT = { has_building = university }
					}
				}
			}
		}
		
		trigger = {
			owns_core_province = 1169
			1169 = {
				development = 40
				has_building = university
			}
			calc_true_if = {
				all_owned_province = {
					culture = malacnari
					has_building = university
				}
				amount = 5
			}
		}
		
		effect = {
			1169 = {
				add_province_modifier = {
					name = malacnar_school
					duration = -1
				}
			}
			define_advisor = {
				type = commandant
				name = "Ivratan Krulav"
				skill = 3
				cost_multiplier = 0.25
				culture = malacnari
			}
	    }
	}
}

G32_western_expansion = {
	slot = 2
	generic = no
	ai = yes
	potential = {
		tag = G32 #Malacnar
	}
	has_country_shield = yes
	
	G32_march_west = {
		icon = the_latin_empire
		required_missions = {  }
		
		provinces_to_highlight = {
			province_id = 1186
			NOT = { owned_by = ROOT }
		}
		
		trigger = {
			OR = {
				custom_trigger_tooltip = {
					tooltip = malacnar_war_mocbarja
					any_country = {
						war_with = ROOT
						owns = 1186
					}
				}
				owns = 1186
			}
		}
		
		effect = {
			mocvare_area = {
				limit = {
					NOT = { is_core = ROOT }
					NOT = { is_permanent_claim = ROOT }
				}
				add_claim = ROOT
			}
	    }
	}
	
	G32_battlekings_passage = {
		icon = danubian_power
		required_missions = { G32_march_west }
		
		provinces_to_highlight = {
			NOT = { owned_by_companion = yes }
			OR = {
				owned_by = G30
				area = mocvare_area
			}
			has_discovered = ROOT
		}
		
		trigger = {
			mocvare_area = {
				type = all
				owned_by_companion = yes
			}
			G30 = { death_or_companion = yes }
		}
		
		effect = {
			increase_legitimacy_large_effect = yes
			add_prestige = 20
			custom_tooltip = malacnar_heathen_claims
			hidden_effect = {
				rzenta_region = {
					limit = {
						NOT = { is_core = ROOT }
						NOT = { is_permanent_claim = ROOT }
						religion = drozma_tur
					}
					add_permanent_claim = ROOT
				}
				pomvasonn_area = {
					limit = {
						NOT = { is_core = ROOT }
						NOT = { is_permanent_claim = ROOT }
						religion = drozma_tur
					}
					add_permanent_claim = ROOT
				}
			}
			arganjuzorn_area = {
				limit = {
					NOT = { is_core = ROOT }
					NOT = { is_permanent_claim = ROOT }
				}
				add_permanent_claim = ROOT
			}
	    }
	}
	
	G32_heathen_host = {
		icon = the_russian_campaign
		required_missions = { G32_deep_breath G32_battlekings_passage }
		
		provinces_to_highlight = {
			NOT = { owned_by_companion = yes }
			OR = {
				region = rzenta_region
				area = pomvasonn_area
			}
			has_discovered = ROOT
			religion = drozma_tur
		}
		
		trigger = {
			custom_trigger_tooltip = {
				tooltip = malacnar_heathens
				rzenta_region = {
					type = all
					OR = {
						owned_by_companion = yes
						NOT = { religion = drozma_tur }
					}
				}
				pomvasonn_area = {
					type = all
					OR = {
						owned_by_companion = yes
						NOT = { religion = drozma_tur }
					}
				}
			}
		}
		
		effect = {
			add_country_modifier = {
				name = malacnar_rzentur_fold
				duration = 12775
			}
	    }
	}
}

G32_ynns_soldiers = {
	slot = 2
	generic = no
	ai = yes
	potential = {
		tag = G32 #Malacnar
	}
	has_country_shield = yes
	
	G32_values = {
		icon = moravian_arms
		required_missions = { G32_rebirth_sword }
		position = 4
		
		trigger = {
			army_size_percentage = 0.8
			num_of_infantry = 20
			advisor = army_organiser
			army_tradition = 40
		}
		
		effect = {
			add_prestige = 5
			add_country_modifier = {
				name = malacnar_values
				duration = 7300
			}
	    }
	}
	
	G32_discipline = {
		icon = gory_to_the_black_army
		required_missions = { G32_values G32_rule_north }
		position = 4
		
		trigger = {
			num_of_infantry = 30
			army_tradition = 50
			has_mil_advisor_2 = yes
			mil_power = 150
		}
		
		effect = {
			add_mil_power = -150
			add_prestige = 10
			add_country_modifier = {
				name = malacnar_discipline
				duration = -1
			}
	    }
	}
	
	G32_obedience = {
		icon = neapolitan_govenance
		required_missions = { G32_discipline G32_battleking_ynnics }
		position = 7
		
		trigger = {
			num_of_infantry = 40
			army_tradition = 60
			has_mil_advisor_3 = yes
			mil_power = 150
		}
		
		effect = {
			add_mil_power = -150
			add_prestige = 15
			add_country_modifier = {
				name = malacnar_obediance
				duration = -1
			}
			remove_country_modifier = malacnar_discipline
	    }
	}
	
	G32_courage = {
		icon = mission_heated_battle
		required_missions = { G32_southern_control G32_obedience G32_pathway_beyond }
		position = 9
		
		trigger = {
			num_of_infantry = 50
			army_tradition = 70
			has_mil_advisor_3 = yes
			mil_power = 150
		}
		
		effect = {
			add_mil_power = -150
			add_prestige = 20
			add_country_modifier = {
				name = malacnar_courage
				duration = -1
			}
			remove_country_modifier = malacnar_obediance
	    }
	}
	
	G32_glory = {
		icon = mission_subdue_rajputana
		required_missions = { G32_school_of_war G32_courage G32_punish_savages }
		position = 11
		
		provinces_to_highlight = {
			province_id = 1169
			OR = {
				NOT = { owned_by = ROOT }
				NOT = { is_core = ROOT }
				NOT = { development = 60 }
			}
			has_discovered = ROOT
		}
		
		trigger = {
			num_of_infantry = 60
			army_tradition = 90
			has_mil_advisor_3 = yes
			prestige = 90
			has_commanding_three_star = yes
			has_ruler_modifier = g32_legendary_battleking
			owns_core_province = 1169
			1169 = { development = 60 }
		}
		
		effect = {
			add_country_modifier = {
				name = malacnar_glory
				duration = -1
			}
	    }
	}
}

G32_ynn_expansion = {
	slot = 3
	generic = no
	ai = yes
	potential = {
		tag = G32 #Malacnar
	}
	has_country_shield = yes
	
	G32_our_side = {
		icon = mission_novgorod_the_great
		required_missions = {  }
		
		trigger = {
			army_size_percentage = 0.9
		    manpower_percentage = 0.8
		}
		
		effect = {
			drevkenuc_area = {
				limit = {
					NOT = { is_core = ROOT }
					NOT = { is_permanent_claim = ROOT }
				}
				add_claim = ROOT
			}
			uslad_area = {
				limit = {
					NOT = { is_core = ROOT }
					NOT = { is_permanent_claim = ROOT }
				}
				add_claim = ROOT
			}
			bosancovac_area = {
				limit = {
					NOT = { is_core = ROOT }
					NOT = { is_permanent_claim = ROOT }
				}
				add_claim = ROOT
			}
	    }
	}
	
	G32_drenvosred_forest = {
		icon = mission_forest_pilgrim
		required_missions = { G32_our_side }
		
		provinces_to_highlight = {
			NOT = { owned_by_companion = yes }
			OR = {
				area = drevkenuc_area
				area = uslad_area
				area = bosancovac_area
			}
			NOT = { province_id = 2839 }
			has_discovered = ROOT
		}
		
		trigger = {
			drevkenuc_area = {
				type = all
				owned_by_companion = yes
			}
			uslad_area = {
				type = all
				owned_by_companion = yes
			}
			bosancovac_area = {
				type = all
				OR = {
					owned_by_companion = yes
					province_id = 2839
				}
			}
		}
		
		effect = {
			add_adm_power = 100
			add_dip_power = 100
			add_mil_power = 100
			1167 = { add_base_production = 1 }
	    }
	}
	
	G32_crossing_west = {
		icon = mission_defeat_jaunpur
		required_missions = { G32_battlekings_passage G32_drenvosred_forest }
		
		provinces_to_highlight = {
			NOT = { owned_by_companion = yes }
			area = arganjuzorn_area
			has_discovered = ROOT
		}
		
		trigger = {
			arganjuzorn_area = {
				type = all
				owned_by_companion = yes
			}
		}
		
		effect = {
			add_country_modifier = {
				name = malacnar_unifying
				duration = 9125
			}
	    }
	}
	
	G32_rule_north = {
		icon = league_of_the_public_weal
		required_missions = { G32_heathen_host G32_crossing_west G32_bulwark_cursed }
		
		provinces_to_highlight = {
			NOT = { owned_by_companion = yes }
			region = dolindha_region
			has_discovered = ROOT
			NOT = { area = ebenmas_area }
		}
		
		trigger = {
			dolindha_region = {
				type = all
				OR = {
					owned_by_companion = yes
					area = ebenmas_area
				}
			}
		}
		
		effect = {
			add_country_modifier = {
				name = malacnar_battleking_d
				duration = 9125
			}
			kaztakri_area = {
				limit = {
					NOT = { is_core = ROOT }
					NOT = { is_permanent_claim = ROOT }
				}
				add_permanent_claim = ROOT
			}
			arverynn_area = {
				limit = {
					NOT = { is_core = ROOT }
					NOT = { is_permanent_claim = ROOT }
				}
				add_permanent_claim = ROOT
			}
			hradapolere_area = {
				limit = {
					NOT = { is_core = ROOT }
					NOT = { is_permanent_claim = ROOT }
				}
				add_permanent_claim = ROOT
			}
	    }
	}
	
	G32_flow_sarda = {
		icon = develop_provence
		required_missions = { G32_rule_north }
		
		provinces_to_highlight = {
			NOT = { owned_by_companion = yes }
			OR = {
				area = kaztakri_area
				area = arverynn_area
				area = hradapolere_area
			}
			NOT = { province_id = 2841 }
			has_discovered = ROOT
		}
		
		trigger = {
			kaztakri_area = {
				type = all
				owned_by_companion = yes
			}
			arverynn_area = {
				type = all
				OR = {
					owned_by_companion = yes
					province_id = 2841
				}
			}
			hradapolere_area = {
				type = all
				owned_by_companion = yes
			}
		}
		
		effect = {
			add_adm_power = 100
			add_dip_power = 100
			add_mil_power = 100
			sarda_region = {
				limit = {
					NOT = { is_core = ROOT }
					NOT = { is_permanent_claim = ROOT }
					culture = sarda
				}
				add_permanent_claim = ROOT
			}
			custom_tooltip = malacnar_sarda_claims
	    }
	}
	
	G32_battleking_ynnics = {
		icon = mission_crusade_for_varna
		required_missions = { G32_discipline G32_flow_sarda }
		
		provinces_to_highlight = {
			NOT = { owned_by_companion = yes }
			region = sarda_region
			culture = sarda
			has_discovered = ROOT
		}
		
		trigger = {
			sarda_region = {
				type = all
				OR = {
					owned_by_companion = yes
					NOT = { culture = sarda }
				}
			}
		}
		
		effect = {
			if = {
				limit = {
					NOT = { government_rank = 3 }
				}
				set_government_rank = 3
			}
			add_prestige = 25
			
			if = {
				limit = {
					tag = G32
				}
				override_country_name = malacnar_boyacsarvo
				set_country_flag = malacnar_is_boyacsarvo
				custom_tooltip = malacnar_no_ynn
				dolindha_region = {
					limit = {
						NOT = { is_core = ROOT }
						NOT = { is_permanent_claim = ROOT }
					}
					add_permanent_claim = ROOT
				}
				sarda_region = {
					limit = {
						NOT = { is_core = ROOT }
						NOT = { is_permanent_claim = ROOT }
					}
					add_permanent_claim = ROOT
				}
				rzenta_region = {
					limit = {
						NOT = { is_core = ROOT }
						NOT = { is_permanent_claim = ROOT }
					}
					add_permanent_claim = ROOT
				}
				ynnsmouth_area = {
					limit = {
						NOT = { is_core = ROOT }
						NOT = { is_permanent_claim = ROOT }
					}
					add_permanent_claim = ROOT
				}
			}
	    }
	}
	
	G32_pathway_beyond = {
		icon = mission_advance_to_the_dnieper
		required_missions = { G32_battleking_ynnics }
		position = 8
		
		provinces_to_highlight = {
			OR = {
				NOT = { owned_by = ROOT }
				NOT = { is_core = ROOT }
			}
			area = ynnsmouth_area
			has_discovered = ROOT
		}
		
		trigger = {
			ynnsmouth_area = {
				type = all
				owned_by = ROOT
				is_core = ROOT
			}
		}
		
		effect = {
			add_adm_power = 200
			add_dip_power = 200
			add_mil_power = 200
			country_event = { id = flavor_malacnar.118 }
	    }
	}
	
	G32_teach_faith = {
		icon = mission_forest_shrine
		required_missions = { G32_pathway_beyond }
		position = 9
		
		trigger = {
			religious_unity = 0.9
			ynnsmouth_area = {
				type = all
				religion = ROOT
			}
			calc_true_if = {
				all_country = {
					OR = {
						alliance_with = ROOT
						is_subject_of = ROOT
					}
					religion = ROOT
					NOT = { culture_group = ynnic_ruinborn_elf }
				}
				amount = 3
			}
		}
		
		effect = {
			increase_legitimacy_large_effect = yes
			custom_tooltip = malacnar_spread_faith
			hidden_effect = {
				every_ally = {
					limit = {
						religion = ynn_river_worship
						NOT = { culture_group = ynnic_ruinborn_elf }
					}
					add_trust = { who = ROOT value = 20 mutual = yes }
				}
				every_subject_country = {
					limit = {
						religion = ynn_river_worship
						NOT = { culture_group = ynnic_ruinborn_elf }
					}
					add_trust = { who = ROOT value = 20 mutual = yes }
					add_liberty_desire = -25
				}
			}
	    }
	}
}

G32_glorious_warfare_harafe = {
	slot = 3
	generic = no
	ai = yes
	potential = {
		tag = G32 #Malacnar
	}
	has_country_shield = yes
	
	G32_punish_savages = { 
		icon = mission_desert_pilgrim
		required_missions = { G32_trollsbay_outsiders }
		position = 10
		
		provinces_to_highlight = {
			colonial_region = colonial_haraf
			owner = { technology_group = tech_north_aelantiri }
			has_discovered = ROOT
		}
		
		trigger = {
			if = {
				limit = {
					any_country = {
						technology_group = tech_north_aelantiri
						capital_scope = { colonial_region = colonial_haraf }
					}
				}
				custom_trigger_tooltip = { 
					tooltip = malacnar_cb_haraf_1
					hidden_trigger = {
						any_country = {
							technology_group = tech_north_aelantiri
							capital_scope = { colonial_region = colonial_haraf }
							is_in_war = {
								attacker_leader = ROOT
								defender_leader = THIS
								casus_belli = cb_malacnari_glory
								war_score = 80
							}
						}
					}
				}
			}
			else = {
				custom_trigger_tooltip = { 
					tooltip = malacnar_cb_haraf_2
					hidden_trigger = {
						any_country = {
							capital_scope = { colonial_region = colonial_haraf }
							is_in_war = {
								attacker_leader = ROOT
								defender_leader = THIS
								casus_belli = cb_malacnari_glory
								war_score = 80
							}
						}
					}
				}
			}
		}
		
		effect = {
			add_country_modifier = {
				name = malacnar_mighty_ynn
				duration = 10950
			}
	    }
	}
}

G32_eastern_expansion = {
	slot = 4
	generic = no
	ai = yes
	potential = {
		tag = G32 #Malacnar
	}
	has_country_shield = yes
	
	G32_integrate_mage = {
		icon = mission_sweat_fealty
		required_missions = {  }
		
		provinces_to_highlight = {
			OR = {
				NOT = { owned_by = ROOT }
				NOT = { is_core = ROOT }
			}
			OR = {
				province_id = 2862
				province_id = 2814
			}
			has_discovered = ROOT
		}
		
		trigger = {
			owns_core_province = 2862
			owns_core_province = 2814
		}
		
		effect = {
			define_general = {
				name = "Thalanor yen Juzorn"
				fire = 0
				shock = 5
				manuever = 1
				siege = 2
			}
			add_estate_influence_modifier = {
				estate = estate_mages
				desc = malacnar_mage_general
				influence = 10
				duration = 9125
			}
			add_estate_loyalty_modifier = {
				estate = estate_mages
				desc = malacnar_mage_general
				loyalty = 10
				duration = 9125
			}
			brelar_area = {
				limit = {
					NOT = { is_core = ROOT }
					NOT = { is_permanent_claim = ROOT }
				}
				add_claim = ROOT
			}
			grebniesth_area = {
				limit = {
					NOT = { is_core = ROOT }
					NOT = { is_permanent_claim = ROOT }
				}
				add_claim = ROOT
			}
			add_permanent_claim = 1171
	    }
	}
	
	G32_old_score = {
		icon = evengelize_the_faith
		required_missions = { G32_integrate_mage }
		
		provinces_to_highlight = {
			NOT = { owned_by_companion = yes }
			OR = {
				province_id = 1171
				owned_by = G31
			}
			has_discovered = ROOT
		}
		
		trigger = {
			1171 = { owned_by_companion = yes }
			G31 = { death_or_companion = yes }
		}
		
		effect = {
			add_splendor = 500
			amacimst_area = {
				limit = {
					NOT = { is_core = ROOT }
					NOT = { is_permanent_claim = ROOT }
				}
				add_claim = ROOT
			}
	    }
	}
	
	G32_bulwark_cursed = {
		icon = mission_alone_in_the_wood
		required_missions = { G32_drenvosred_forest G32_old_score }
		
		provinces_to_highlight = {
			NOT = { owned_by_companion = yes }
			OR = {
				owned_by = G26
				province_id = 2839
				area = amacimst_area
			}
			has_discovered = ROOT
		}
		
		trigger = {
			amacimst_area = {
				type = all
				owned_by_companion = yes
			}
			2839 = { owned_by_companion = yes }
			G26 = { death_or_companion = yes }
		}
		
		effect = {
		    add_army_tradition = 25
			define_conquistador = {
				name = "Ser Camovac 'the Mound's Python'"
				shock = 3
				fire = 5
				manuever = 4
				siege = 1
			}
	    }
	}
	
	G32_glory_warriors = {
		icon = mission_rb_unite_the_clans
		required_missions = { G32_bulwark_cursed }
		
		trigger = {
			estate_loyalty = { estate = estate_adventurers loyalty = 40 }
			estate_loyalty = { estate = estate_nobles loyalty = 50 }
			adm_power = 150
		}
		
		effect = {
			add_adm_power = -150
			hidden_effect = {
				if = {
					limit = {
						has_estate_privilege = estate_adventurers_organization_land_of_adventure
					}
					remove_estate_privilege = estate_adventurers_organization_land_of_adventure
				}
				if = {
					limit = {
						has_estate_privilege = estate_adventurers_organization_chronicler_grants
					}
					remove_estate_privilege = estate_adventurers_organization_chronicler_grants
				}
			}
			if = {
				limit = {
					NOT = { has_estate_privilege = estate_adventurers_organization_licensed_adventurers }
				}
				set_estate_privilege = estate_adventurers_organization_licensed_adventurers
			}
			add_estate_loyalty = { estate = estate_nobles loyalty = 15 }
			add_estate_influence_modifier = {
				estate = estate_nobles
				desc = malacnar_warriors_favored
				influence = 15
				duration = 14600
			}
			add_estate_loyalty_modifier = {
				estate = estate_nobles
				desc = malacnar_warriors_favored
				loyalty = 15
				duration = 14600
			}
	    }
	}
	
	G32_into_frontier = {
		icon = mission_extent_yasak_to_the_east
		required_missions = { G32_rule_north G32_glory_warriors }
		
		trigger = {
			treasury = 100
			dip_power = 100
		}
		
		effect = {
			add_treasury = -100
			add_dip_power = -100
			add_estate_loyalty = { estate = estate_adventurers loyalty = 15 }
			add_country_modifier = {
				name = malacnar_frontiers
				duration = 18250
			}
	    }
	}
	
	G32_ynns_influence = {
		icon = mission_unite_home_region
		required_missions = { G32_battleking_ynnics G32_into_frontier }
		position = 7
		
		provinces_to_highlight = {
			NOT = { country_or_non_sovereign_subject_holds = ROOT }
			OR = {
				region = dolindha_region
				region = sarda_region
				province_id = 2781
			}
			has_discovered = ROOT
		}
		
		trigger = {
			dolindha_region = {
				type = all
				country_or_non_sovereign_subject_holds = ROOT
			}
			sarda_region = {
				type = all
				country_or_non_sovereign_subject_holds = ROOT
			}
			owns_or_non_sovereign_subject_of = 2781
		}
		
		effect = {
			add_country_modifier = {
				name = malacnar_settle
				duration = 9125
			}
	    }
	}
}

G32_glorious_warfare_outsiders = {
	slot = 4
	generic = no
	ai = yes
	potential = {
		tag = G32 #Malacnar
	}
	has_country_shield = yes
	
	G32_trollsbay_outsiders = {
		icon = end_genoese_competition
		required_missions = { G32_pathway_beyond G32_make_them_kneel }
		position = 9
		
		provinces_to_highlight = {
			colonial_region = colonial_noruin
			owner = { technology_group = tech_cannorian }
			has_discovered = ROOT
		}
		
		trigger = {
			custom_trigger_tooltip = { 
				tooltip = malacnar_cb_noruin
				hidden_trigger = {
					any_country = {
						technology_group = tech_cannorian
						capital_scope = { colonial_region = colonial_noruin }
						is_in_war = {
							attacker_leader = ROOT
							defender_leader = THIS
							casus_belli = cb_malacnari_glory
							war_score = 80
						}
					}
				}
			}
		}
		
		effect = {
			custom_tooltip = malacnar_subjugation_noruin
			hidden_effect = {
				every_country = {
					limit = {
						NOT = { total_development = 100 }
						is_subject = no
						NOT = { culture_group = ynnic_ruinborn_elf }
						capital_scope = { colonial_region = colonial_noruin }
					}
					reverse_add_casus_belli = {
						target = ROOT
						type = cb_vassalize_mission
						months = 240
					}
				}
			}
	    }
	}
	
	G32_vessels_beyond = {
		icon = mission_fleet_arrival
		required_missions = { G32_trollsbay_outsiders }
		position = 10
		
		trigger = {
			naval_forcelimit = 50
			navy_size_percentage = 1
		}
		
		effect = {
			add_country_modifier = {
				name = malacnar_wider_waters
				duration = 9125
			}
			define_explorer = {
				name = "Calasandor yen Kozelynn"
				shock = 3
				fire = 3
				manuever = 6
				siege = 4
			}
			custom_tooltip = malacnar_cb_all
	    }
	}
	
	G32_invade_invaders = {
		icon = mission_face_off
		required_missions = { G32_vessels_beyond }
		position = 11
		
		provinces_to_highlight = {
			owner = { 
				colony = 1
				technology_group = tech_cannorian
			}
			has_discovered = ROOT
		}
		
		trigger = {
			if = {
				limit = {
					any_country = {
						technology_group = tech_cannorian
						colony = 1
					}
				}
				custom_trigger_tooltip = { 
					tooltip = malacnar_cb_colonizer_1
					hidden_trigger = {
						any_country = {
							technology_group = tech_cannorian
							colony = 1
							is_in_war = {
								attacker_leader = ROOT
								defender_leader = THIS
								casus_belli = cb_malacnari_glory
								war_score = 80
							}
						}
					}
				}
			}
			else = {
				custom_trigger_tooltip = { 
					tooltip = malacnar_cb_colonizer_2
					hidden_trigger = {
						any_country = {
							technology_group = tech_cannorian
							is_rival = ROOT
							is_in_war = {
								attacker_leader = ROOT
								defender_leader = THIS
								casus_belli = cb_malacnari_glory
								war_score = 80
							}
						}
					}
				}
			}
		}
		
		effect = {
			mission_reward_artifice_points_5 = yes #semi-placeholder
	    }
	}
}

G32_companions = {
	slot = 5
	generic = no
	ai = yes
	potential = {
		tag = G32 #Malacnar
	}
	has_country_shield = yes
	
	G32_with_two_companions = {
		icon = sav_union_with_naples
		required_missions = {  }
		
		trigger = {
			calc_true_if = {
				all_ally = {
					AND = {
						has_opinion = {
							who = G32
							value = 150
						}
						culture_group = ynnic_ruinborn_elf
						NOT = { has_opinion_modifier = { who = G32 modifier = allied_to_rival } }
					}
				}
				amount = 2
			}
			NOT = { num_of_allies = 3 }
		}
		
		effect = {
			add_army_tradition = 30
			custom_tooltip = malacnar_found_companions
			hidden_effect = {
				random_ally = {
					limit = {
						AND = {
							has_opinion = {
								who = G32
								value = 100
							}
							culture_group = ynnic_ruinborn_elf
							NOT = { has_opinion_modifier = { who = G32 modifier = allied_to_rival } }
						}
					}
					set_country_flag = malacnar_companion
					country_event = { id = flavor_malacnar.101 days = 1 }
				}
			}
			add_country_modifier = {
				name = malacnar_fight_three
				duration = 10950
			}
	    }
	}
	
	G32_three_champions = {
		icon = mission_warrior_gold
		required_missions = { G32_with_two_companions }
		
		trigger = {
			custom_trigger_tooltip = { 
				tooltip = malacnar_rival_v_companion
				hidden_trigger = {
					any_rival_country = {
						war_with = ROOT
						NOT = {
							war_score_against = {
								who = ROOT
								value = -80
							}
						}
						calc_true_if = {
							all_country = {
								war_with = PREV
								is_companion = yes
							}
							amount = 2
						}
					}
				}
			}
		}
		
		effect = {
			add_dip_power = 50
			add_mil_power = 50
			custom_tooltip = malacnar_champions
			hidden_effect = {
				every_ally = {
					limit = {
						is_companion = yes
					}
					add_trust = { who = ROOT value = 20 mutual = yes }
					add_dip_power = 50
					add_mil_power = 50
				}
			}
	    }
	}
	
	G32_honor_friends = {
		icon = mission_feast
		required_missions = { G32_three_champions }
		
		trigger = {
			OR = {
				custom_trigger_tooltip = { 
					tooltip = malacnar_aid_companion
					hidden_trigger = {
						any_ally = {
							is_companion = yes
							is_in_war = {
								attacker_leader = THIS
								attackers = ROOT
								war_score = 80
							}
						}
					}
				}
				custom_trigger_tooltip = { 
					tooltip = malacnar_gift_companion
					hidden_trigger = {
						calc_true_if = {
							all_country = {
								is_companion = yes
								has_opinion_modifier = {
									modifier = sent_gift
									who = ROOT
									value = 15
								}
							}
							amount = 2
						}
					}
				}
			}
		}
		
		effect = {
			add_country_modifier = {
				name = malacnar_honorable_companion
				duration = 9125
			}
	    }
	}
	
	G32_companions_river = {
		icon = mission_weather_the_troubles
		required_missions = { G32_honor_friends }
		
		trigger = {
			custom_trigger_tooltip = { 
				tooltip = malacnar_true_companions
				hidden_trigger = {
					calc_true_if = {
						all_country = {
							is_companion = yes
							trust = { who = ROOT value = 100 }
							has_opinion = { who = ROOT value = 190 }
						}
						amount = 2
					}
				}
			}
			custom_trigger_tooltip = {
				tooltip = malacnar_true_companions_peace
				hidden_trigger = {
					NOT = { is_at_war = yes }
					calc_true_if = {
						all_country = {
							is_companion = yes
							NOT = { is_at_war = yes }
						}
						amount = 2
					}
				}
			}
		}
		
		effect = {
			custom_tooltip = malacnar_join
			every_ally = {
				limit = {
					is_companion = yes
				}
				country_event = { id = flavor_malacnar.107 days = 1 }
			}
	    }
	}
}

G32_outsiders = {
	slot = 5
	generic = no
	ai = yes
	potential = {
		tag = G32 #Malacnar
	}
	has_country_shield = yes
	
	G32_contact_outsiders = {
		icon = trade_with_the_natives
		required_missions = { G32_glory_warriors }
		position = 5
		
		provinces_to_highlight = {
			NOT = { owned_by_companion = yes }
			area = bosancovac_area
			has_discovered = ROOT
		}
		
		trigger = {
			1165 = { owned_by_companion = yes }
			is_institution_enabled = new_world_i
			any_country = {
				technology_group = tech_cannorian
				has_opinion = { who = ROOT value = 100 } 
			}
		}
		
		effect = {
			change_innovativeness = 1
			country_event = { id = flavor_malacnar.111 }
	    }
	}
	
	G32_secret_gunpowder = {
		icon = mission_cannons_firing
		required_missions = { G32_into_frontier G32_contact_outsiders }
		
		provinces_to_highlight = {
			NOT = { owned_by = ROOT }
			province_id = 1165
			has_discovered = ROOT
		}
		
		trigger = {
			has_institution = new_world_i
			num_of_artillery = 4
		}
		
		effect = {
			add_country_modifier = {
				name = malacnar_knowledge
				duration = 7300
			}
			set_country_flag = malacnar_foreign_artillery
			custom_tooltip = malacnar_foreign_cannons
			custom_tooltip = malacnar_enable_cb
	    }
	}
	
	G32_make_them_cower = {
		icon = mission_mounted_battle
		required_missions = { G32_secret_gunpowder }
		
		trigger = {
			prestige = 60
			custom_trigger_tooltip = { 
				tooltip = malacnar_cb_neighbor
				hidden_trigger = {
					any_neighbor_country = {
						technology_group = tech_cannorian
						is_in_war = {
							attacker_leader = ROOT
							defender_leader = THIS
							casus_belli = cb_malacnari_glory
							war_score = 80
						}
					}
				}
			}
		}
		
		effect = {
			add_splendor = 250
			custom_tooltip = malacnar_subjugation
			hidden_effect = {
				every_neighbor_country = {
					limit = {
						NOT = { total_development = 80 }
						is_subject = no
						NOT = { culture_group = ynnic_ruinborn_elf }
					}
					reverse_add_casus_belli = {
						target = ROOT
						type = cb_vassalize_mission
						months = 240
					}
				}
			}
	    }
	}
	
	G32_make_them_kneel = {
		icon = mission_have_two_subjects
		required_missions = { G32_ynns_influence G32_make_them_cower }
		
		trigger = {
			calc_true_if = {
				all_subject_country = { technology_group = tech_cannorian }
				amount = 2
			}
		}
		
		effect = {
			add_mil_power = 100
			custom_tooltip = malacnar_expand_cb
			every_subject_country = {
				add_liberty_desire = -20
			}
	    }
	}
}

G32_glorious_warfare_eordellon = {
	slot = 5
	generic = no
	ai = yes
	potential = {
		tag = G32 #Malacnar
	}
	has_country_shield = yes
	
	G32_best_seasons = {
		icon = mission_duel_snow
		required_missions = { G32_make_them_kneel }
		position = 9
		
		provinces_to_highlight = {
			colonial_region = colonial_eordand
			owner = { technology_group = tech_eordand }
			has_discovered = ROOT
		}
		
		trigger = {
			if = {
				limit = {
					any_country = {
						technology_group = tech_eordand
						capital_scope = { colonial_region = colonial_eordand }
					}
				}
				custom_trigger_tooltip = { 
					tooltip = malacnar_cb_eordellon_1
					hidden_trigger = {
						any_country = {
							technology_group = tech_eordand
							capital_scope = { colonial_region = colonial_eordand }
							is_in_war = {
								attacker_leader = ROOT
								defender_leader = THIS
								casus_belli = cb_malacnari_glory
								war_score = 80
							}
						}
					}
				}
			}
			else = {
				custom_trigger_tooltip = { 
					tooltip = malacnar_cb_eordellon_2
					hidden_trigger = {
						any_country = {
							capital_scope = { colonial_region = colonial_eordand }
							is_in_war = {
								attacker_leader = ROOT
								defender_leader = THIS
								casus_belli = cb_malacnari_glory
								war_score = 80
							}
						}
					}
				}
			}
			owns_core_province = 2808
			any_province = {
				colonial_region = colonial_eordand
				trade_goods = precursor_relics
				controlled_by = ROOT
			}
		}
		
		effect = {
			country_event = { id = flavor_malacnar.112 }
			add_country_modifier = {
				name = malacnar_kindling
				duration = 5475
			}
			custom_tooltip = malacnar_discover_eordand
			hidden_effect = {
				colonial_eordand = {
					discover_country = ROOT
				}
				discover_province = 1805
				discover_province = 1587
				discover_province = 1396
			}
	    }
	}
	
	G32_ynns_wrath = {
		icon = mission_torch_fire
		required_missions = { G32_best_seasons }
		
		provinces_to_highlight = {
			colonial_region = colonial_eordand
			has_terrain = ancient_forest
			NOT = { controlled_by = ROOT }
			has_discovered = ROOT
		}
		
		trigger = {
			NOT = { has_country_modifier = malacnar_kindling }
			if = {
				limit = {
					any_country = {
						technology_group = tech_eordand
						capital_scope = { colonial_region = colonial_eordand }
					}
				}
				custom_trigger_tooltip = { 
					tooltip = malacnar_cb_eordellon_3
					hidden_trigger = {
						any_country = {
							technology_group = tech_eordand
							capital_scope = { colonial_region = colonial_eordand }
							is_in_war = {
								attacker_leader = ROOT
								defender_leader = THIS
								casus_belli = cb_malacnari_glory
								war_score = 90
							}
						}
					}
				}
			}
			else = {
				custom_trigger_tooltip = { 
					tooltip = malacnar_cb_eordellon_4
					hidden_trigger = {
						any_country = {
							capital_scope = { colonial_region = colonial_eordand }
							is_in_war = {
								attacker_leader = ROOT
								defender_leader = THIS
								casus_belli = cb_malacnari_glory
								war_score = 90
							}
						}
					}
				}
			}
			calc_true_if = {
				all_province = {
					has_terrain = ancient_forest
					controlled_by = ROOT
					colonial_region = colonial_eordand
				}
				amount = 6
			}
		}
		
		effect = {
			country_event = { id = flavor_malacnar.113 }
	    }
	}
}