rubenaire_mercenaries = {
	slot = 1
	generic = no
	ai = yes
	potential = {
		tag = A18
	}
	has_country_shield = yes
	
	rubenaire_the_returning_warriors = {
	    icon = the_italian_league
		required_missions = { }
		position = 2
		
		trigger = {
		    stability = 1
		}

        effect = {
            add_country_modifier = {
				name = "rubenaire_returning_warriors"
				duration = 9125 #25 years
			}
		}	
	}
	
	rubenaire_the_vincent_association = {
	    icon = mission_diplomacy_missive
		required_missions = { rubenaire_the_returning_warriors }
		position = 3
		
		trigger = {
		    treasury = 200
			mil_power = 200
		}
		
		effect = {
		    add_treasury = -200
			add_mil_power = -200
            add_country_modifier = {
				name = "rubenaire_vincent_association"
				duration = -1
			}
		}
	}
	
	rubenaire_revive_entebic_pride = {
	    icon = mission_break_the_tatar_yoke
		required_missions = { rubenaire_the_vincent_association
                              rubenaire_a_rubenaire_back_in_control	}
		position = 4
		
		trigger = {
		    prestige = 50
		}	
		
		effect = {
		    add_country_modifier = {
				name = "rubenaire_entebic_pride"
				duration = 9125 #25 years
			}
		}
	}
	
	rubenaire_bloodfield_riders = {
	    icon = mission_subjugate_rajputana
		required_missions = { rubenaire_revive_entebic_pride }
		position = 5
		
		trigger = {
		    num_of_cavalry = 15
			mil_power = 100
		}
		
		effect = {
		    add_mil_power = -100
		    custom_tooltip = bloodfield_riders_reward
    		hidden_effect = { set_country_flag = rubenaire_bloodfield_riders }
		}    
	}
	
	rubenaire_ancestral_territory = {
	    icon = gory_to_the_black_army
		required_missions = { }
		position = 6
		
		provinces_to_highlight = {
			area = lorenans_reach_area
			NOT = {
				country_or_non_sovereign_subject_holds = ROOT
			}
		}
		
		trigger = {
		    lorenans_reach_area = {
				type = all
				country_or_non_sovereign_subject_holds = ROOT
			}
		}
		
		effect = {
		    roysfort_area = {
				limit = {
					NOT = { is_core = ROOT }
					NOT = { is_permanent_claim = ROOT }
				}
				add_permanent_claim = ROOT
			}
			thomsbridge_area = {
				limit = {
					NOT = { is_core = ROOT }
					NOT = { is_permanent_claim = ROOT }
				}
				add_permanent_claim = ROOT
			}
		}
	}
	
	
	rubenaire_seize_the_southern_small_country = {
	    icon = mission_guilds_of_barcelona
		required_missions = { rubenaire_ancestral_territory }
		position = 7
		
		provinces_to_highlight = {
			OR = {
				area = roysfort_area
				area = thomsbridge_area
			}
			NOT = {
				country_or_non_sovereign_subject_holds = ROOT
			}
		}
		
		trigger = {
		    roysfort_area = {
				type = all
				country_or_non_sovereign_subject_holds = ROOT
			}
			thomsbridge_area = {
				type = all
				country_or_non_sovereign_subject_holds = ROOT
			}
		}
		
		effect = {
		    add_country_modifier = {
				name = "rubenaire_food_abundance"
				duration = 7300 #20 years
			}		
		}
	}
	
	rubenaire_entrust_the_farms_to_humans = {
	    icon = mission_expel_the_moriscos
		required_missions = { rubenaire_seize_the_southern_small_country }
		position = 8
		
		provinces_to_highlight = {
			OR = {
			    area = lorenans_reach_area
				area = roysfort_area
				area = thomsbridge_area
			}
		}
		
		trigger = {
		    adm_power = 50
		    lorenans_reach_area = {
				type = all
				owned_by = ROOT
			}
		    roysfort_area = {
				type = all
				owned_by = ROOT
			}
			thomsbridge_area = {
				type = all
				owned_by = ROOT
	    	}
		}

        effect = {
            add_adm_power = -50      
            custom_tooltip = human_farms			
		    hidden_effect = {
			    every_owned_province = {
			        limit = {
				        OR = {
			                area = lorenans_reach_area
				            area = roysfort_area
				            area = thomsbridge_area
					    }
                        trade_goods = grain
                        culture = redfoot_halfling
                    }
                    add_devastation = 20
				    change_culture = high_lorentish
				    spawn_rebels = {
                        type = anti_tax_rebels
                        size = 1
                    }
			    }
			}	
			135 = {
			    add_base_tax = 2
				add_base_production = 2
				add_base_manpower = 3
				add_permanent_province_modifier = {
					name = "rubenaire_halfling_bastion"
					duration = -1
				}
			}
			add_country_modifier = {
				name = "rubenaire_human_farmers"
				duration = -1
			}
		}	
	}
}

rubenaire_west = {
	slot = 2
	generic = no
	ai = yes
	potential = {
		tag = A18
	}
	has_country_shield = yes
	
	rubenaire_strengthen_lencori_ties = {
	    icon = mission_discussion_arch
		required_missions = { }
		position = 1
		
		trigger = {
		    OR = {
		        AND = {
		            alliance_with = A15
			        marriage_with = A15
				}
				is_rival = A15
                NOT = { exists = A15 }
			}	
		}

        effect = {
		    if = {
			    limit = { alliance_with = A15 }
				    add_trust = {
                        who = A15
                        value = 50
                        mutual = yes
					}
			}
		    add_country_modifier = {
				name = "rubenaire_lencori_ties"
				duration = 7300 #20 years
			}
		}	
	}
	
	rubenaire_restore_reputation = {
	    icon = friends_in_high_places
		required_missions = { rubenaire_strengthen_lencori_ties }
		position = 2
		
		trigger = {
		    diplomatic_reputation = 3
			OR = {
			    army_strength = {
                    who = A17
	                value = 1.5
                }
				NOT = { exists = A17 }
			}	
		}
		
		effect = {
		    add_casus_belli = {
                target = A17
                type = cb_restore_personal_union
                months = 240
            }   
		}
	}
	
	rubenaire_a_rubenaire_back_in_control = {
	    icon = unite_the_wittelsbachs
		required_missions = { rubenaire_restore_reputation }
		position = 3
		
		trigger = {
		    OR = {
      		    senior_union_with = A17
				NOT = { exists = A17 }
			}	
		}
		
		effect = {
		    northern_flats_area = {
				limit = {
					NOT = { is_core = ROOT }
					NOT = { is_permanent_claim = ROOT }
				}
				add_permanent_claim = ROOT
			}
			deranne_area = {
				limit = {
					NOT = { is_core = ROOT }
					NOT = { is_permanent_claim = ROOT }
				}
				add_permanent_claim = ROOT
			}
		}
	}
	
	rubenaire_the_new_order = {
	    icon = swiss_mercenaries
		required_missions = { rubenaire_a_rubenaire_back_in_control }
		position = 4
		
		provinces_to_highlight = {
			OR = {
				area = northern_flats_area
				area = deranne_area
			}
			NOT = {
				country_or_non_sovereign_subject_holds = ROOT
			}
		}
		
		trigger = {
		    northern_flats_area = {
				type = all
				owned_by = A17
			}
			deranne_area = {
				type = all
				owned_by = A17
			}
		}
		
		effect = {
		    add_country_modifier = {
				name = "rubenaire_new_order"
				duration = -1
			}
		}
	}
	
	rubenaire_the_edge_of_the_empire = {
	    icon = the_latin_empire
		required_missions = { rubenaire_one_more_flower_in_the_field }
		position = 5
		
		provinces_to_highlight = {
			OR = {
				area = eastern_winebay_area
				area = carneteria_area
			}
			NOT = {
				country_or_non_sovereign_subject_holds = ROOT
			}
		}
		
		trigger = {
		    eastern_winebay_area = {
				type = all
				country_or_non_sovereign_subject_holds = ROOT
			}
			carneteria_area = {
				type = all
				country_or_non_sovereign_subject_holds = ROOT
			}
		}
		
		effect = {
		    add_country_modifier = {
				name = "rubenaire_trade_route_monopoly"
				duration = 7300 #20 years
			}
		}
	}
	
	rubenaire_secure_a_strong_ally = {
	    icon = sav_union_with_naples
		required_missions = { rubenaire_the_rose_throne }
		position = 6
		
		trigger = {
		    OR = {
    		    alliance_with = A33
				is_rival = A33
				NOT = { exists = A33 }
			}	
		}
		
        effect = {
		    pearlywine_area = {
				limit = {
					NOT = { is_core = ROOT }
					NOT = { is_permanent_claim = ROOT }
				}
				add_permanent_claim = ROOT
			}
			damespearl_area = {
				limit = {
					NOT = { is_core = ROOT }
					NOT = { is_permanent_claim = ROOT }
				}
				add_permanent_claim = ROOT
			}
        }
	}
	
	rubenaire_rose_and_pearls = {
	    icon = the_hundred_years_war
		required_missions = { rubenaire_secure_a_strong_ally }
		position = 7
		
		provinces_to_highlight = {
			OR = {
				area = pearlywine_area
				area = damespearl_area
			}
			NOT = {
				country_or_non_sovereign_subject_holds = ROOT
			}
		}
		
		trigger = {
		    pearlywine_area = {
				type = all
				country_or_non_sovereign_subject_holds = ROOT
			}
			damespearl_area = {
				type = all
				country_or_non_sovereign_subject_holds = ROOT
			}
		}
		
		effect = {
		    neckcliffe_area = {
				limit = {
					NOT = { is_core = ROOT }
					NOT = { is_permanent_claim = ROOT }
				}
				add_permanent_claim = ROOT
			}
			woodwell_area = {
				limit = {
					NOT = { is_core = ROOT }
					NOT = { is_permanent_claim = ROOT }
				}
				add_permanent_claim = ROOT
			}
        }
	}
	
	rubenaire_bring_down_the_west_damerian_counts = {
	    icon = mission_heated_battle
		required_missions = { rubenaire_rose_and_pearls }
		position = 8
		
		provinces_to_highlight = {
			OR = {
				area = neckcliffe_area
				area = woodwell_area
			}
			NOT = {
				country_or_non_sovereign_subject_holds = ROOT
			}
		}
		
		trigger = {
		    neckcliffe_area = {
				type = all
				country_or_non_sovereign_subject_holds = ROOT
			}
			woodwell_area = {
				type = all
				country_or_non_sovereign_subject_holds = ROOT
			}
		}
		
		effect = {
		    windtower_area = {
				limit = {
					NOT = { is_core = ROOT }
					NOT = { is_permanent_claim = ROOT }
				}
				add_permanent_claim = ROOT
			}
			wesdam_area = {
				limit = {
					NOT = { is_core = ROOT }
					NOT = { is_permanent_claim = ROOT }
				}
				add_permanent_claim = ROOT
			}
        }
	}
	
	rubenaire_defeat_the_traitors = {
	    icon = mission_burning_castle
		required_missions = { rubenaire_bring_down_the_west_damerian_counts }
		position = 9
		
		provinces_to_highlight = {
			OR = {
				area = windtower_area
				area = wesdam_area
			}
			NOT = {
				country_or_non_sovereign_subject_holds = ROOT
			}
		}
		
		trigger = {
		    windtower_area = {
				type = all
				country_or_non_sovereign_subject_holds = ROOT
			}
			wesdam_area = {
				type = all
				country_or_non_sovereign_subject_holds = ROOT
			}
		}
		
		effect = {
		    west_damesear_area = {
				limit = {
					NOT = { is_core = ROOT }
					NOT = { is_permanent_claim = ROOT }
				}
				add_permanent_claim = ROOT
			}
        }
	}
}

rubenaire_middle = {
	slot = 3
	generic = no
	ai = yes
	potential = {
		tag = A18
	}
	has_country_shield = yes
	
	rubenaire_raise_new_soldiers = {
	    icon = mission_consolidate_the_state
		required_missions = { }
		position = 1
		
		trigger = {
		    army_size_percentage = 0.9
		}

        effect = {
            lower_winebay_area = {
				limit = {
					NOT = { is_core = ROOT }
					NOT = { is_permanent_claim = ROOT }
				}
				add_permanent_claim = ROOT
			}
		}
	}
	
	rubenaire_merchants_and_priests = {
	    icon = boh_humiliate_austria
		required_missions = { rubenaire_raise_new_soldiers }
		position = 2
		
		provinces_to_highlight = {
		    area = lower_winebay_area
		    NOT = {
			    country_or_non_sovereign_subject_holds = ROOT
		    }
		}
		
		trigger = {
		    lower_winebay_area = {
				type = all
				country_or_non_sovereign_subject_holds = ROOT
			}
		}
		
		effect = {
			lower_bloodwine_area = {
				limit = {
					NOT = { is_core = ROOT }
					NOT = { is_permanent_claim = ROOT }
				}
				add_permanent_claim = ROOT
			}
        }
	}
	
	rubenaire_one_more_flower_in_the_field = {
	    icon = support_american_independence
		required_missions = { rubenaire_a_rubenaire_back_in_control
		                      rubenaire_merchants_and_priests }
		position = 4
		
		trigger = {
		    OR = {
			    AND = {
				    total_development = A15
					prestige = A15
					army_strength = {
                        who = A15
	                    value = 2
                    }
					dip_power = 150
				}	
		        NOT = { exists = A15 }
			}
		}

        effect = {
			if = {
				limit = { exists = A15 }
				add_dip_power = -150
				A18 = {
					create_union = A15	
				}
			}
			eastern_winebay_area = {
				limit = {
					NOT = { is_core = ROOT }
					NOT = { is_permanent_claim = ROOT }
				}
				add_permanent_claim = ROOT
			}
			carneteria_area = {
				limit = {
					NOT = { is_core = ROOT }
					NOT = { is_permanent_claim = ROOT }
				}
				add_permanent_claim = ROOT
			}
		}	
	}
	
	rubenaire_the_rose_throne = {
	    icon = mission_empire
		required_missions = { rubenaire_one_more_flower_in_the_field
                              rubenaire_unite_the_houses }
		position = 5
		
		provinces_to_highlight = {
			OR = {
				area = upper_winebay_area
				area = upper_bloodwine_area
			}
			NOT = {
				country_or_non_sovereign_subject_holds = ROOT
			}
		}
		
		trigger = {
		    upper_winebay_area = {
				type = all
				country_or_non_sovereign_subject_holds = ROOT
			}
			upper_bloodwine_area = {
				type = all
				country_or_non_sovereign_subject_holds = ROOT
			}
			OR = {
			    AND = {
				    total_development = A01
					prestige = A01
					army_strength = {
                        who = A01
	                    value = 2
                    }
				}	
		        NOT = { exists = A01 }
			}	
		}
		
		effect = {
		    lencenor_region = {
				limit = {
					NOT = { is_core = ROOT }
					NOT = { is_permanent_claim = ROOT }
				}
				add_permanent_claim = ROOT
			}
			add_casus_belli = {
                target = A01
                type = cb_restore_personal_union
                months = 240
            } 
		}
	}
	
	rubenaire_ties_in_the_east = {
	    icon = strengthen_the_vroedschappen
		required_missions = { rubenaire_our_rightful_land }
		position = 8
		
		trigger = {
			alliance_with = A45
			marriage_with = A45
		}
		
		effect = {
		    add_prestige = 10
			add_country_modifier = {
				name = "rubenaire_lencori_ties"
				duration = 7300 #20 years
			}	
			
		}
	}
	
	rubenaire_rosen_peace = {
	    icon = reform_bergordnung
		required_missions = { rubenaire_ties_in_the_east }
		position = 9
		
		trigger = {
			exists = A45 #Istralore
			treasury = 500
			dip_power = 200
			total_development = A45
			prestige = A45
			army_strength = {
                who = A45
	            value = 7
            }
			OR = {
				is_emperor = yes
				AND = {
					total_development = emperor
					prestige = emperor
					army_strength = {
						who = emperor
						value = 5
					}
				}
			}
		}
		
		effect = {
		    add_treasury = -500
			add_dip_power = -200
		    A18 = {
                create_union = A45
			}
		}	
	}
	
	rubenaire_the_dukes_crossguard = {
	    icon = centralized_empire
		required_missions = { rubenaire_defeat_the_traitors 
		                      rubenaire_bring_the_east_under_heel }
		position = 10
		
		provinces_to_highlight = {
			OR = {
				area = west_damesear_area
				area = east_damesear_area
			}
			NOT = {
				country_or_non_sovereign_subject_holds = ROOT
			}
		}
		
		trigger = {
		    west_damesear_area = {
				type = all
				country_or_non_sovereign_subject_holds = ROOT
			}
			east_damesear_area = {
				type = all
				country_or_non_sovereign_subject_holds = ROOT
			}
		}
		effect = {
		    add_mercantilism = 10
            add_country_modifier = {
				name = "rubenaire_the_crossguard"
				duration = -1
			}
			hidden_effect = { set_country_flag = rubenaire_the_crossguard }
		}
	}
}

rubenaire_east = {
	slot = 4
	generic = no
	ai = yes
	potential = {
		tag = A18
	}
	has_country_shield = yes
	
	rubenaire_the_rubenaire_university = {
	    icon = defend_the_city
		required_missions = { rubenaire_recovering_from_the_lilac_wars }
		position = 2
		
		provinces_to_highlight = {
			province_id = 108
		}
		
		trigger = {
			108 = {
				owned_by = ROOT
				has_building = university
			}
		}

		effect = {
			add_country_modifier = {
				name = "rubenaire_rubenaire_university"
				duration = 3650 #10 years
			}
		}
	}
	
	rubenaire_the_lost_rose = {
	    icon = consolidate_the_stadholders
		required_missions = { rubenaire_merchants_and_priests }
		position = 3
		
		trigger = {
		    prestige = 35
			OR = {
			    army_strength = {
                    who = A14
	                value = 3
                }
				NOT = { exists = A14 }
			}
		}
		
		effect = {
		    add_casus_belli = {
                target = A14
                type = cb_vassalize_mission
                months = 240
            }   
		}
	}
	
	rubenaire_unite_the_houses = {
	    icon = mission_crusade_for_varna
		required_missions = { rubenaire_the_lost_rose }
		position = 4
		
		provinces_to_highlight = {
			area = lower_bloodwine_area
			NOT = {
				country_or_non_sovereign_subject_holds = ROOT
			}
		}
		
		trigger = {
		    lower_bloodwine_area = {
				type = all
				country_or_non_sovereign_subject_holds = ROOT
			}
		}
		
		effect = {
		    upper_winebay_area = {
				limit = {
					NOT = { is_core = ROOT }
					NOT = { is_permanent_claim = ROOT }
				}
				add_permanent_claim = ROOT
			}
		    upper_bloodwine_area = {
				limit = {
					NOT = { is_core = ROOT }
					NOT = { is_permanent_claim = ROOT }
				}
				add_permanent_claim = ROOT
			}
			sorncost_vines_area = {
				limit = {
					NOT = { is_core = ROOT }
					NOT = { is_permanent_claim = ROOT }
				}
				add_permanent_claim = ROOT
			}
		}	
	}
	
	rubenaire_borrow_sorcosti_experts = {
	    icon = mission_noble_council
		required_missions = { rubenaire_unite_the_houses }
		position = 5
		
		provinces_to_highlight = {
			area = sorncost_vines_area
			NOT = {
				country_or_non_sovereign_subject_holds = ROOT
			}
		}
		
		trigger = {
		    treasury = 100
		    sorncost_vines_area = {
				type = all
				country_or_non_sovereign_subject_holds = ROOT
			}
		}
		
		effect = {
		    add_treasury = -100
		    85 = {
			    add_base_production = -2
			}	
		    88 = {
			    add_base_production = -2
			}	
			99 = {
			    add_base_production = -2
			}
            108 = {
                add_base_production = 6
                add_permanent_province_modifier = {
					name = "rubenaire_sorncosti_experts"
					duration = -1
				}
			}
		}	
	}
	
	rubenaire_raise_invasion_fleet = {
	    icon = mission_corsairs_of_the_north_sea
		required_missions = { rubenaire_the_rose_throne }
		position = 6
		
		trigger = {
		    navy_size_percentage = 1
		}

        effect = {
			add_country_modifier = {
				name = "rubenaire_invasion_fleet"
				duration = 7300 #20 years
			}
			330 = {
				if = {
					limit = {
						NOT = { is_core = ROOT }
						NOT = { is_permanent_claim = ROOT }
					}
					add_permanent_claim = ROOT
				}
			}
			276 = {
				if = {
					limit = {
						NOT = { is_core = ROOT }
						NOT = { is_permanent_claim = ROOT }
					}
					add_permanent_claim = ROOT
				}
			}
		}		
	}
	
	rubenaire_our_rightful_land = {
	    icon = mission_steppe_warriors
		required_missions = { rubenaire_raise_invasion_fleet }
		position = 7
		
		provinces_to_highlight = {
			OR = {
				province_id = 330
				province_id = 276
			}
			NOT = {
				country_or_non_sovereign_subject_holds = ROOT
			}
		}
		
		trigger = {
		    330 = { owned_by = ROOT }
		    276 = { owned_by = ROOT }
		}
		
		effect = {
		    damerian_dales_area = {
				limit = {
					NOT = { is_core = ROOT }
					NOT = { is_permanent_claim = ROOT }
				}
				add_permanent_claim = ROOT
			}
		}
	}
	
	rubenaire_solidify_our_holdings = {
	    icon = mission_conquer_50_development
		required_missions = { rubenaire_our_rightful_land }
		position = 8
		
		provinces_to_highlight = {
			area = damerian_dales_area
			NOT = {
				country_or_non_sovereign_subject_holds = ROOT
			}
		}
		
		trigger = {
		    damerian_dales_area = {
				type = all
				country_or_non_sovereign_subject_holds = ROOT
			}
		}
		
		effect = {
		    silverwoods_area = {
				limit = {
					NOT = { is_core = ROOT }
					NOT = { is_permanent_claim = ROOT }
				}
				add_permanent_claim = ROOT
			}
			eastneck_area = {
				limit = {
					NOT = { is_core = ROOT }
					NOT = { is_permanent_claim = ROOT }
				}
				add_permanent_claim = ROOT
			}
		}	
	}
	
	rubenaire_bring_the_east_under_heel = {
	    icon = mission_raid_on_genoa
		required_missions = { rubenaire_solidify_our_holdings }
		position = 9
		
		provinces_to_highlight = {
			OR = {
				area = silverwoods_area
				area = eastneck_area
			}
			NOT = {
				country_or_non_sovereign_subject_holds = ROOT
			}
		}
		
		trigger = {
		    silverwoods_area = {
				type = all
				country_or_non_sovereign_subject_holds = ROOT
			}
			eastneck_area = {
				type = all
				country_or_non_sovereign_subject_holds = ROOT
			}
		}
		
		effect = {
		    east_damesear_area = {
				limit = {
					NOT = { is_core = ROOT }
					NOT = { is_permanent_claim = ROOT }
				}
				add_permanent_claim = ROOT
			}
        }
	}
}

rubenaire_wine = {
	slot = 5
	generic = no
	ai = yes
	potential = {
		tag = A18
	}
	has_country_shield = yes
	
	rubenaire_recovering_from_the_lilac_wars = {
	    icon = expand_the_arsenal
		required_missions = { }
		position = 1
		
		trigger = {
		    108 = {
			    owned_by = ROOT
			    has_trade_building_trigger = yes
			}	
		}
		
		effect = {
		    108 = {
			    add_center_of_trade_level = 1
			}
		}	
	}
	
	rubenaire_expand_the_fields = {
	    icon = prosper_in_piedmont
		required_missions = { rubenaire_recovering_from_the_lilac_wars }
		position = 2
		
		provinces_to_highlight = {
		    province_id = 108
		}	
		
		trigger = {
		    108 = {
			    owned_by = ROOT
			    development = 30
			}	
		}
		
		effect = {
		    108 = {
			    add_permanent_province_modifier = {
					name = "rubenaire_red_1"
					duration = -1
				}
			}
		}	
	}
	
	rubenaire_sell_to_markets_far_and_wide = {
	    icon = mission_develop_nevas_port
		required_missions = { rubenaire_expand_the_fields }
		position = 3
		
		trigger = {
		    108 = { owned_by = ROOT }
			home_trade_node = {
				trade_share = {
					country = ROOT
					share = 50
				}
			}
		}
		
		effect = {
		    108 = {
			    add_center_of_trade_level = 1
			    hidden_effect = {
					remove_province_modifier = rubenaire_red_1
				}
			    add_permanent_province_modifier = {
					name = "rubenaire_red_2"
					duration = -1
				}
           }
			add_country_modifier = {
				    name = "rubenaire_trade_control"
				    duration = 7300 #20 years
			}
		}
	}
	
	rubenaire_weaken_the_traders_and_clergy = {
	    icon = mission_unite_the_princes
		required_missions = { rubenaire_sell_to_markets_far_and_wide }
		position = 4
		
		provinces_to_highlight = {
			OR = {
				area = lower_winebay_area
				province_id = 108
			}
		}
		
		trigger = {
		    treasury = 250
		    lower_winebay_area = {
				type = all
				country_or_non_sovereign_subject_holds = ROOT
			}
		    108 = { owned_by = ROOT }
		}
		
		effect = {
		    add_treasury = -250
		    84 = {
			    add_base_production = -2
			}	
		    81 = {
			    add_base_production = -2
			}	
			101 = {
			    add_base_production = -2
			}
			97 = {
			    add_base_production = -2
			}
            108 = {
                add_base_production = 8
                hidden_effect = {
					remove_province_modifier = rubenaire_red_2
				}
			    add_permanent_province_modifier = {
					name = "rubenaire_red_3"
					duration = -1
				}
			}
			add_estate_loyalty = {
                estate = estate_church
                loyalty = -20
            }
			add_estate_loyalty = {
                estate = estate_burghers
                loyalty = -20
            }
			add_country_modifier = {
				    name = "rubenaire_noble_supremacy"
				    duration = -1
			}
		}	
	}

	rubenaire_sabotage_the_competition = {
	    icon = mission_missive
		required_missions = { rubenaire_weaken_the_traders_and_clergy }
		position = 5
		
		provinces_to_highlight = {
			OR = {
				province_id = 79
				province_id = 114
			}
			NOT = {
				country_or_non_sovereign_subject_holds = ROOT
			}
		}
		
		trigger = {
		    treasury = 150
		    108 = { owned_by = ROOT }
			79 = { owned_by = ROOT }
		    114 = { owned_by = ROOT }
		}
		
	    effect = {
	        add_treasury = -150
	        79 = {
			    add_base_production = -3
			}	
		    114 = {
			    add_base_production = -3
			}	
            108 = {
                add_base_production = 6
                hidden_effect = {
					remove_province_modifier = rubenaire_red_3
				}
			    add_permanent_province_modifier = {
					name = "rubenaire_red_4"
					duration = -1
				}
			}
		}	
	}
	
	rubenaire_the_best_in_the_world = {
	    icon = mission_wine_monopolies
		required_missions = { rubenaire_borrow_sorcosti_experts
		                      rubenaire_sabotage_the_competition }
		position = 6
		
		provinces_to_highlight = {
		    province_id = 108
		}	
		
		trigger = {
		    108 = {
				owned_by = ROOT
			    has_building = farm_estate
				base_production = 35
			}
			production_leader = {
	            trade_goods = wine
            }
		}
		
		effect = {
            108 = {
                hidden_effect = {
					remove_province_modifier = rubenaire_red_4
				}
			    add_permanent_province_modifier = {
					name = "rubenaire_red_5"
					duration = -1
				}
			}
		}
	}
	
	rubenaire_the_superior_drink = {
	    icon = bohemian_crystal
		required_missions = { rubenaire_solidify_our_holdings }
		position = 9
		
		provinces_to_highlight = {
		    province_id = 54
		}
		
		trigger = {
		    treasury = 50
	 	    54 = {
		        owned_by = ROOT
		    }	
		}
		
		effect = {
		    add_treasury = -50
			54 = {
			    change_trade_goods = wine
		    }
			add_prestige = 20
		}	
	}
}	