namespace = flavor_magisterium

# Pro-Corinite Magisters
country_event = {
	id = flavor_magisterium.1
	title = flavor_magisterium.1.t
	desc = flavor_magisterium.1.d
	picture = RELIGION_eventPicture
	
	fire_only_once = yes
	
	trigger = {
		tag = A85
			
		is_religion_enabled = corinite
		
		NOT = { religion = corinite }
		current_age = age_of_reformation
	}
	
	mean_time_to_happen = {
		months = 100
		
		modifier = {
			factor = 0.5
			any_owned_province = { 
				religion = corinite
			}
		}
	}
	
	#Convert to Corinite
	option = {
		name = flavor_magisterium.1.a
		ai_chance = {
			factor = 60
			modifier = {
				factor = 3
				any_owned_province = {
				religion = corinite
				}
			}
			modifier = {
				factor = 3
				any_owned_province = {
				is_reformation_center = yes
				}
			}
			modifier = {
				factor = 1.5
				NOT = {
					stability = 0
				}
			}
			modifier = {
				factor = 1.5
				NOT = {
					stability = -2
				}
			}
			modifier = {
				factor = 1.5
				has_personal_deity = corin
			}
			modifier = {
				factor = 1.4
				mil = 4
			}
			modifier = {
				factor = 0
				is_emperor = yes
				hre_religion_treaty = no
			}
			modifier = {
				factor = 1.5
				personality = ai_militarist
			}
			modifier = {
				factor = 1.25
				ruler_has_personality = free_thinker_personality
			}
			modifier = {
				factor = 1.25
				ruler_has_personality = bold_fighter_personality
			}
			modifier = {
				factor = 1.3
				has_reform = external_mission_reform
			}
		}
		capital_scope = {
			change_religion = corinite
			add_permanent_province_modifier = {
				name = "religious_zeal_at_conv"
				duration = 9000
			}
		}
		change_religion = corinite
		add_country_modifier = {
			name = "conversion_zeal"
			duration = 3650
		}
	}
	
	#Stay Regent Court
	option = {
		name = flavor_magisterium.1.b
		ai_chance = {
			factor = 40
			modifier = {
				factor = 2
				stability = 3
			}
			modifier = {
				factor = 1.5
				has_personal_deity = adean
			}
			modifier = {
				factor = 1.25
				ruler_has_personality = calm_personality
			}
			modifier = {
				factor = 1.25
				ruler_has_personality = careful_personality
			}
			modifier = {
				factor = 2
				is_defender_of_faith = yes
			}
			modifier = {
				factor = 1.3
				has_reform = internal_mission_reform
			}
		}
		capital_scope = {
			change_religion = regent_court
			add_permanent_province_modifier = {
				name = "religious_zeal_at_conv"
				duration = 9000
			}
		}
	}

}